{
  "pagination": {
    "current_page": 1,
    "per_page": 50,
    "total_items": 13137,
    "total_pages": 263,
    "next_page": 2,
    "prev_page": null
  },
  "data": [
    {
      "block_number": 4991597,
      "timestamp": "2025-02-23T19:12:00.001Z",
      "netuid": 1,
      "hotkey": {
        "ss58": "5HK5tp6t2S59DywmHRWPBVJeJ86T61KjurYqeooqj8sREpeN",
        "hex": "0xe824c935940357af73c961bdd7387e1ab821ec2939ecd19daafe6081ae9ae674"
      },
      "emission": "91746810",
      "root_emission": "116615636"
    },
    {
      "block_number": 4991543,
      "timestamp": "2025-02-23T19:01:12Z",
      "netuid": 2,
      "hotkey": {
        "ss58": "5HK5tp6t2S59DywmHRWPBVJeJ86T61KjurYqeooqj8sREpeN",
        "hex": "0xe824c935940357af73c961bdd7387e1ab821ec2939ecd19daafe6081ae9ae674"
      },
      "emission": "58451407",
      "root_emission": "48165828"
    },
    {
      "block_number": 4991542,
      "timestamp": "2025-02-23T19:01:00Z",
      "netuid": 3,
      "hotkey": {
        "ss58": "5HK5tp6t2S59DywmHRWPBVJeJ86T61KjurYqeooqj8sREpeN",
        "hex": "0xe824c935940357af73c961bdd7387e1ab821ec2939ecd19daafe6081ae9ae674"
      },
      "emission": "329235592",
      "root_emission": "179400134"
    },
    {
      "block_number": 4991541,
      "timestamp": "2025-02-23T19:00:48.001Z",
      "netuid": 4,
      "hotkey": {
        "ss58": "5HK5tp6t2S59DywmHRWPBVJeJ86T61KjurYqeooqj8sREpeN",
        "hex": "0xe824c935940357af73c961bdd7387e1ab821ec2939ecd19daafe6081ae9ae674"
      },
      "emission": "301166386",
      "root_emission": "2246745178"
    },
    {
      "block_number": 4991540,
      "timestamp": "2025-02-23T19:00:36Z",
      "netuid": 5,
      "hotkey": {
        "ss58": "5HK5tp6t2S59DywmHRWPBVJeJ86T61KjurYqeooqj8sREpeN",
        "hex": "0xe824c935940357af73c961bdd7387e1ab821ec2939ecd19daafe6081ae9ae674"
      },
      "emission": "380788995",
      "root_emission": "214750103"
    },
    {
      "block_number": 4991539,
      "timestamp": "2025-02-23T19:00:24.001Z",
      "netuid": 6,
      "hotkey": {
        "ss58": "5HK5tp6t2S59DywmHRWPBVJeJ86T61KjurYqeooqj8sREpeN",
        "hex": "0xe824c935940357af73c961bdd7387e1ab821ec2939ecd19daafe6081ae9ae674"
      },
      "emission": "210670940",
      "root_emission": "151043866"
    },
    {
      "block_number": 4991538,
      "timestamp": "2025-02-23T19:00:12Z",
      "netuid": 7,
      "hotkey": {
        "ss58": "5HK5tp6t2S59DywmHRWPBVJeJ86T61KjurYqeooqj8sREpeN",
        "hex": "0xe824c935940357af73c961bdd7387e1ab821ec2939ecd19daafe6081ae9ae674"
      },
      "emission": "170842602",
      "root_emission": "28733867"
    },
    {
      "block_number": 4991537,
      "timestamp": "2025-02-23T19:00:00Z",
      "netuid": 8,
      "hotkey": {
        "ss58": "5HK5tp6t2S59DywmHRWPBVJeJ86T61KjurYqeooqj8sREpeN",
        "hex": "0xe824c935940357af73c961bdd7387e1ab821ec2939ecd19daafe6081ae9ae674"
      },
      "emission": "378500329",
      "root_emission": "1107464461"
    },
    {
      "block_number": 4991536,
      "timestamp": "2025-02-23T18:59:48Z",
      "netuid": 9,
      "hotkey": {
        "ss58": "5HK5tp6t2S59DywmHRWPBVJeJ86T61KjurYqeooqj8sREpeN",
        "hex": "0xe824c935940357af73c961bdd7387e1ab821ec2939ecd19daafe6081ae9ae674"
      },
      "emission": "247123279",
      "root_emission": "199054634"
    },
    {
      "block_number": 4991535,
      "timestamp": "2025-02-23T18:59:36Z",
      "netuid": 10,
      "hotkey": {
        "ss58": "5HK5tp6t2S59DywmHRWPBVJeJ86T61KjurYqeooqj8sREpeN",
        "hex": "0xe824c935940357af73c961bdd7387e1ab821ec2939ecd19daafe6081ae9ae674"
      },
      "emission": "250792169",
      "root_emission": "229392121"
    },
    {
      "block_number": 4991534,
      "timestamp": "2025-02-23T18:59:24Z",
      "netuid": 11,
      "hotkey": {
        "ss58": "5HK5tp6t2S59DywmHRWPBVJeJ86T61KjurYqeooqj8sREpeN",
        "hex": "0xe824c935940357af73c961bdd7387e1ab821ec2939ecd19daafe6081ae9ae674"
      },
      "emission": "303988708",
      "root_emission": "186263427"
    },
    {
      "block_number": 4991533,
      "timestamp": "2025-02-23T18:59:12Z",
      "netuid": 12,
      "hotkey": {
        "ss58": "5HK5tp6t2S59DywmHRWPBVJeJ86T61KjurYqeooqj8sREpeN",
        "hex": "0xe824c935940357af73c961bdd7387e1ab821ec2939ecd19daafe6081ae9ae674"
      },
      "emission": "145788952",
      "root_emission": "45764401"
    },
    {
      "block_number": 4991532,
      "timestamp": "2025-02-23T18:59:00Z",
      "netuid": 13,
      "hotkey": {
        "ss58": "5HK5tp6t2S59DywmHRWPBVJeJ86T61KjurYqeooqj8sREpeN",
        "hex": "0xe824c935940357af73c961bdd7387e1ab821ec2939ecd19daafe6081ae9ae674"
      },
      "emission": "508832704",
      "root_emission": "377103494"
    },
    {
      "block_number": 4991531,
      "timestamp": "2025-02-23T18:58:48Z",
      "netuid": 14,
      "hotkey": {
        "ss58": "5HK5tp6t2S59DywmHRWPBVJeJ86T61KjurYqeooqj8sREpeN",
        "hex": "0xe824c935940357af73c961bdd7387e1ab821ec2939ecd19daafe6081ae9ae674"
      },
      "emission": "197616139",
      "root_emission": "36403375"
    },
    {
      "block_number": 4991530,
      "timestamp": "2025-02-23T18:58:36Z",
      "netuid": 15,
      "hotkey": {
        "ss58": "5HK5tp6t2S59DywmHRWPBVJeJ86T61KjurYqeooqj8sREpeN",
        "hex": "0xe824c935940357af73c961bdd7387e1ab821ec2939ecd19daafe6081ae9ae674"
      },
      "emission": "316415747",
      "root_emission": "19362327"
    },
    {
      "block_number": 4991529,
      "timestamp": "2025-02-23T18:58:24Z",
      "netuid": 16,
      "hotkey": {
        "ss58": "5HK5tp6t2S59DywmHRWPBVJeJ86T61KjurYqeooqj8sREpeN",
        "hex": "0xe824c935940357af73c961bdd7387e1ab821ec2939ecd19daafe6081ae9ae674"
      },
      "emission": "275126878",
      "root_emission": "91507162"
    },
    {
      "block_number": 4991528,
      "timestamp": "2025-02-23T18:58:12Z",
      "netuid": 17,
      "hotkey": {
        "ss58": "5HK5tp6t2S59DywmHRWPBVJeJ86T61KjurYqeooqj8sREpeN",
        "hex": "0xe824c935940357af73c961bdd7387e1ab821ec2939ecd19daafe6081ae9ae674"
      },
      "emission": "123373341",
      "root_emission": "66262205"
    },
    {
      "block_number": 4991527,
      "timestamp": "2025-02-23T18:58:00Z",
      "netuid": 18,
      "hotkey": {
        "ss58": "5HK5tp6t2S59DywmHRWPBVJeJ86T61KjurYqeooqj8sREpeN",
        "hex": "0xe824c935940357af73c961bdd7387e1ab821ec2939ecd19daafe6081ae9ae674"
      },
      "emission": "106553827",
      "root_emission": "52072765"
    },
    {
      "block_number": 4991526,
      "timestamp": "2025-02-23T18:57:48Z",
      "netuid": 19,
      "hotkey": {
        "ss58": "5HK5tp6t2S59DywmHRWPBVJeJ86T61KjurYqeooqj8sREpeN",
        "hex": "0xe824c935940357af73c961bdd7387e1ab821ec2939ecd19daafe6081ae9ae674"
      },
      "emission": "315334572",
      "root_emission": "618596609"
    },
    {
      "block_number": 4991525,
      "timestamp": "2025-02-23T18:57:36Z",
      "netuid": 20,
      "hotkey": {
        "ss58": "5HK5tp6t2S59DywmHRWPBVJeJ86T61KjurYqeooqj8sREpeN",
        "hex": "0xe824c935940357af73c961bdd7387e1ab821ec2939ecd19daafe6081ae9ae674"
      },
      "emission": "283533433",
      "root_emission": "148688548"
    },
    {
      "block_number": 4991522,
      "timestamp": "2025-02-23T18:57:00Z",
      "netuid": 23,
      "hotkey": {
        "ss58": "5HK5tp6t2S59DywmHRWPBVJeJ86T61KjurYqeooqj8sREpeN",
        "hex": "0xe824c935940357af73c961bdd7387e1ab821ec2939ecd19daafe6081ae9ae674"
      },
      "emission": "105571358",
      "root_emission": "56888781"
    },
    {
      "block_number": 4991521,
      "timestamp": "2025-02-23T18:56:48Z",
      "netuid": 24,
      "hotkey": {
        "ss58": "5HK5tp6t2S59DywmHRWPBVJeJ86T61KjurYqeooqj8sREpeN",
        "hex": "0xe824c935940357af73c961bdd7387e1ab821ec2939ecd19daafe6081ae9ae674"
      },
      "emission": "221199460",
      "root_emission": "71649707"
    },
    {
      "block_number": 4991520,
      "timestamp": "2025-02-23T18:56:36Z",
      "netuid": 25,
      "hotkey": {
        "ss58": "5HK5tp6t2S59DywmHRWPBVJeJ86T61KjurYqeooqj8sREpeN",
        "hex": "0xe824c935940357af73c961bdd7387e1ab821ec2939ecd19daafe6081ae9ae674"
      },
      "emission": "235542114",
      "root_emission": "117910883"
    },
    {
      "block_number": 4991519,
      "timestamp": "2025-02-23T18:56:24Z",
      "netuid": 26,
      "hotkey": {
        "ss58": "5HK5tp6t2S59DywmHRWPBVJeJ86T61KjurYqeooqj8sREpeN",
        "hex": "0xe824c935940357af73c961bdd7387e1ab821ec2939ecd19daafe6081ae9ae674"
      },
      "emission": "2143550450",
      "root_emission": "60206337"
    },
    {
      "block_number": 4991518,
      "timestamp": "2025-02-23T18:56:12Z",
      "netuid": 27,
      "hotkey": {
        "ss58": "5HK5tp6t2S59DywmHRWPBVJeJ86T61KjurYqeooqj8sREpeN",
        "hex": "0xe824c935940357af73c961bdd7387e1ab821ec2939ecd19daafe6081ae9ae674"
      },
      "emission": "686965081",
      "root_emission": "98760331"
    },
    {
      "block_number": 4991517,
      "timestamp": "2025-02-23T18:56:00Z",
      "netuid": 28,
      "hotkey": {
        "ss58": "5HK5tp6t2S59DywmHRWPBVJeJ86T61KjurYqeooqj8sREpeN",
        "hex": "0xe824c935940357af73c961bdd7387e1ab821ec2939ecd19daafe6081ae9ae674"
      },
      "emission": "0",
      "root_emission": "0"
    },
    {
      "block_number": 4991516,
      "timestamp": "2025-02-23T18:55:48Z",
      "netuid": 29,
      "hotkey": {
        "ss58": "5HK5tp6t2S59DywmHRWPBVJeJ86T61KjurYqeooqj8sREpeN",
        "hex": "0xe824c935940357af73c961bdd7387e1ab821ec2939ecd19daafe6081ae9ae674"
      },
      "emission": "69128780",
      "root_emission": "73877784"
    },
    {
      "block_number": 4991515,
      "timestamp": "2025-02-23T18:55:36.001Z",
      "netuid": 30,
      "hotkey": {
        "ss58": "5HK5tp6t2S59DywmHRWPBVJeJ86T61KjurYqeooqj8sREpeN",
        "hex": "0xe824c935940357af73c961bdd7387e1ab821ec2939ecd19daafe6081ae9ae674"
      },
      "emission": "215299619",
      "root_emission": "169265210"
    },
    {
      "block_number": 4991514,
      "timestamp": "2025-02-23T18:55:24Z",
      "netuid": 31,
      "hotkey": {
        "ss58": "5HK5tp6t2S59DywmHRWPBVJeJ86T61KjurYqeooqj8sREpeN",
        "hex": "0xe824c935940357af73c961bdd7387e1ab821ec2939ecd19daafe6081ae9ae674"
      },
      "emission": "447704179",
      "root_emission": "93280316"
    },
    {
      "block_number": 4991513,
      "timestamp": "2025-02-23T18:55:12.001Z",
      "netuid": 32,
      "hotkey": {
        "ss58": "5HK5tp6t2S59DywmHRWPBVJeJ86T61KjurYqeooqj8sREpeN",
        "hex": "0xe824c935940357af73c961bdd7387e1ab821ec2939ecd19daafe6081ae9ae674"
      },
      "emission": "91041673",
      "root_emission": "127188981"
    },
    {
      "block_number": 4991512,
      "timestamp": "2025-02-23T18:55:00Z",
      "netuid": 33,
      "hotkey": {
        "ss58": "5HK5tp6t2S59DywmHRWPBVJeJ86T61KjurYqeooqj8sREpeN",
        "hex": "0xe824c935940357af73c961bdd7387e1ab821ec2939ecd19daafe6081ae9ae674"
      },
      "emission": "143449521",
      "root_emission": "112688102"
    },
    {
      "block_number": 4991511,
      "timestamp": "2025-02-23T18:54:48.001Z",
      "netuid": 34,
      "hotkey": {
        "ss58": "5HK5tp6t2S59DywmHRWPBVJeJ86T61KjurYqeooqj8sREpeN",
        "hex": "0xe824c935940357af73c961bdd7387e1ab821ec2939ecd19daafe6081ae9ae674"
      },
      "emission": "328124101",
      "root_emission": "1012770806"
    },
    {
      "block_number": 4991510,
      "timestamp": "2025-02-23T18:54:36Z",
      "netuid": 35,
      "hotkey": {
        "ss58": "5HK5tp6t2S59DywmHRWPBVJeJ86T61KjurYqeooqj8sREpeN",
        "hex": "0xe824c935940357af73c961bdd7387e1ab821ec2939ecd19daafe6081ae9ae674"
      },
      "emission": "223002671",
      "root_emission": "83619024"
    },
    {
      "block_number": 4991509,
      "timestamp": "2025-02-23T18:54:24Z",
      "netuid": 36,
      "hotkey": {
        "ss58": "5HK5tp6t2S59DywmHRWPBVJeJ86T61KjurYqeooqj8sREpeN",
        "hex": "0xe824c935940357af73c961bdd7387e1ab821ec2939ecd19daafe6081ae9ae674"
      },
      "emission": "28069986",
      "root_emission": "62378810"
    },
    {
      "block_number": 4991508,
      "timestamp": "2025-02-23T18:54:12.001Z",
      "netuid": 37,
      "hotkey": {
        "ss58": "5HK5tp6t2S59DywmHRWPBVJeJ86T61KjurYqeooqj8sREpeN",
        "hex": "0xe824c935940357af73c961bdd7387e1ab821ec2939ecd19daafe6081ae9ae674"
      },
      "emission": "203241719",
      "root_emission": "70722719"
    },
    {
      "block_number": 4991507,
      "timestamp": "2025-02-23T18:54:00.001Z",
      "netuid": 38,
      "hotkey": {
        "ss58": "5HK5tp6t2S59DywmHRWPBVJeJ86T61KjurYqeooqj8sREpeN",
        "hex": "0xe824c935940357af73c961bdd7387e1ab821ec2939ecd19daafe6081ae9ae674"
      },
      "emission": "157315298",
      "root_emission": "22473875"
    },
    {
      "block_number": 4991506,
      "timestamp": "2025-02-23T18:53:48Z",
      "netuid": 39,
      "hotkey": {
        "ss58": "5HK5tp6t2S59DywmHRWPBVJeJ86T61KjurYqeooqj8sREpeN",
        "hex": "0xe824c935940357af73c961bdd7387e1ab821ec2939ecd19daafe6081ae9ae674"
      },
      "emission": "18249671",
      "root_emission": "7458798"
    },
    {
      "block_number": 4991505,
      "timestamp": "2025-02-23T18:53:36Z",
      "netuid": 40,
      "hotkey": {
        "ss58": "5HK5tp6t2S59DywmHRWPBVJeJ86T61KjurYqeooqj8sREpeN",
        "hex": "0xe824c935940357af73c961bdd7387e1ab821ec2939ecd19daafe6081ae9ae674"
      },
      "emission": "266027775",
      "root_emission": "179271956"
    },
    {
      "block_number": 4991504,
      "timestamp": "2025-02-23T18:53:24.001Z",
      "netuid": 41,
      "hotkey": {
        "ss58": "5HK5tp6t2S59DywmHRWPBVJeJ86T61KjurYqeooqj8sREpeN",
        "hex": "0xe824c935940357af73c961bdd7387e1ab821ec2939ecd19daafe6081ae9ae674"
      },
      "emission": "421976408",
      "root_emission": "127994460"
    },
    {
      "block_number": 4991503,
      "timestamp": "2025-02-23T18:53:12Z",
      "netuid": 42,
      "hotkey": {
        "ss58": "5HK5tp6t2S59DywmHRWPBVJeJ86T61KjurYqeooqj8sREpeN",
        "hex": "0xe824c935940357af73c961bdd7387e1ab821ec2939ecd19daafe6081ae9ae674"
      },
      "emission": "303784089",
      "root_emission": "362874574"
    },
    {
      "block_number": 4991502,
      "timestamp": "2025-02-23T18:53:00.001Z",
      "netuid": 43,
      "hotkey": {
        "ss58": "5HK5tp6t2S59DywmHRWPBVJeJ86T61KjurYqeooqj8sREpeN",
        "hex": "0xe824c935940357af73c961bdd7387e1ab821ec2939ecd19daafe6081ae9ae674"
      },
      "emission": "149394612",
      "root_emission": "68530737"
    },
    {
      "block_number": 4991501,
      "timestamp": "2025-02-23T18:52:48Z",
      "netuid": 44,
      "hotkey": {
        "ss58": "5HK5tp6t2S59DywmHRWPBVJeJ86T61KjurYqeooqj8sREpeN",
        "hex": "0xe824c935940357af73c961bdd7387e1ab821ec2939ecd19daafe6081ae9ae674"
      },
      "emission": "103827871",
      "root_emission": "15171337"
    },
    {
      "block_number": 4991500,
      "timestamp": "2025-02-23T18:52:36.001Z",
      "netuid": 45,
      "hotkey": {
        "ss58": "5HK5tp6t2S59DywmHRWPBVJeJ86T61KjurYqeooqj8sREpeN",
        "hex": "0xe824c935940357af73c961bdd7387e1ab821ec2939ecd19daafe6081ae9ae674"
      },
      "emission": "127625357",
      "root_emission": "131267136"
    },
    {
      "block_number": 4991499,
      "timestamp": "2025-02-23T18:52:24Z",
      "netuid": 46,
      "hotkey": {
        "ss58": "5HK5tp6t2S59DywmHRWPBVJeJ86T61KjurYqeooqj8sREpeN",
        "hex": "0xe824c935940357af73c961bdd7387e1ab821ec2939ecd19daafe6081ae9ae674"
      },
      "emission": "243218282",
      "root_emission": "216712780"
    },
    {
      "block_number": 4991498,
      "timestamp": "2025-02-23T18:52:12Z",
      "netuid": 47,
      "hotkey": {
        "ss58": "5HK5tp6t2S59DywmHRWPBVJeJ86T61KjurYqeooqj8sREpeN",
        "hex": "0xe824c935940357af73c961bdd7387e1ab821ec2939ecd19daafe6081ae9ae674"
      },
      "emission": "149565943",
      "root_emission": "46370446"
    },
    {
      "block_number": 4991497,
      "timestamp": "2025-02-23T18:52:00Z",
      "netuid": 1,
      "hotkey": {
        "ss58": "5HK5tp6t2S59DywmHRWPBVJeJ86T61KjurYqeooqj8sREpeN",
        "hex": "0xe824c935940357af73c961bdd7387e1ab821ec2939ecd19daafe6081ae9ae674"
      },
      "emission": "91235202",
      "root_emission": "116487520"
    },
    {
      "block_number": 4991497,
      "timestamp": "2025-02-23T18:52:00Z",
      "netuid": 48,
      "hotkey": {
        "ss58": "5HK5tp6t2S59DywmHRWPBVJeJ86T61KjurYqeooqj8sREpeN",
        "hex": "0xe824c935940357af73c961bdd7387e1ab821ec2939ecd19daafe6081ae9ae674"
      },
      "emission": "286617179",
      "root_emission": "437446380"
    },
    {
      "block_number": 4991496,
      "timestamp": "2025-02-23T18:51:48.001Z",
      "netuid": 49,
      "hotkey": {
        "ss58": "5HK5tp6t2S59DywmHRWPBVJeJ86T61KjurYqeooqj8sREpeN",
        "hex": "0xe824c935940357af73c961bdd7387e1ab821ec2939ecd19daafe6081ae9ae674"
      },
      "emission": "835815778",
      "root_emission": "20648779"
    },
    {
      "block_number": 4991495,
      "timestamp": "2025-02-23T18:51:36Z",
      "netuid": 50,
      "hotkey": {
        "ss58": "5HK5tp6t2S59DywmHRWPBVJeJ86T61KjurYqeooqj8sREpeN",
        "hex": "0xe824c935940357af73c961bdd7387e1ab821ec2939ecd19daafe6081ae9ae674"
      },
      "emission": "197800080",
      "root_emission": "130820730"
    },
    {
      "block_number": 4991494,
      "timestamp": "2025-02-23T18:51:24Z",
      "netuid": 51,
      "hotkey": {
        "ss58": "5HK5tp6t2S59DywmHRWPBVJeJ86T61KjurYqeooqj8sREpeN",
        "hex": "0xe824c935940357af73c961bdd7387e1ab821ec2939ecd19daafe6081ae9ae674"
      },
      "emission": "263834403",
      "root_emission": "1015433881"
    }
  ]
}